SingleCycleComputer/simulation/qsim/SingleCycleComputer.msim.vcd
$comment
	File created using the following command:
		vcd file SingleCycleComputer.msim.vcd -direction
$end
$date
	Wed May 06 22:41:23 2020
$end
$version
	ModelSim Version 10.5b
$end
$timescale
	1ps
$end

$scope module SingleCycleComputer_vlg_vec_tst $end
$var reg 1 ! Clock $end
$var reg 8 " DataIn [7:0] $end
$var reg 1 # ResetN $end
$var wire 1 $ BusA [7] $end
$var wire 1 % BusA [6] $end
$var wire 1 & BusA [5] $end
$var wire 1 ' BusA [4] $end
$var wire 1 ( BusA [3] $end
$var wire 1 ) BusA [2] $end
$var wire 1 * BusA [1] $end
$var wire 1 + BusA [0] $end
$var wire 1 , BusAhighnibble [6] $end
$var wire 1 - BusAhighnibble [5] $end
$var wire 1 . BusAhighnibble [4] $end
$var wire 1 / BusAhighnibble [3] $end
$var wire 1 0 BusAhighnibble [2] $end
$var wire 1 1 BusAhighnibble [1] $end
$var wire 1 2 BusAhighnibble [0] $end
$var wire 1 3 BusAlownibble [6] $end
$var wire 1 4 BusAlownibble [5] $end
$var wire 1 5 BusAlownibble [4] $end
$var wire 1 6 BusAlownibble [3] $end
$var wire 1 7 BusAlownibble [2] $end
$var wire 1 8 BusAlownibble [1] $end
$var wire 1 9 BusAlownibble [0] $end
$var wire 1 : BusB [7] $end
$var wire 1 ; BusB [6] $end
$var wire 1 < BusB [5] $end
$var wire 1 = BusB [4] $end
$var wire 1 > BusB [3] $end
$var wire 1 ? BusB [2] $end
$var wire 1 @ BusB [1] $end
$var wire 1 A BusB [0] $end
$var wire 1 B BusBhighnibble [6] $end
$var wire 1 C BusBhighnibble [5] $end
$var wire 1 D BusBhighnibble [4] $end
$var wire 1 E BusBhighnibble [3] $end
$var wire 1 F BusBhighnibble [2] $end
$var wire 1 G BusBhighnibble [1] $end
$var wire 1 H BusBhighnibble [0] $end
$var wire 1 I BusBlownibble [6] $end
$var wire 1 J BusBlownibble [5] $end
$var wire 1 K BusBlownibble [4] $end
$var wire 1 L BusBlownibble [3] $end
$var wire 1 M BusBlownibble [2] $end
$var wire 1 N BusBlownibble [1] $end
$var wire 1 O BusBlownibble [0] $end
$var wire 1 P BusD [7] $end
$var wire 1 Q BusD [6] $end
$var wire 1 R BusD [5] $end
$var wire 1 S BusD [4] $end
$var wire 1 T BusD [3] $end
$var wire 1 U BusD [2] $end
$var wire 1 V BusD [1] $end
$var wire 1 W BusD [0] $end
$var wire 1 X BusDhighnibble [6] $end
$var wire 1 Y BusDhighnibble [5] $end
$var wire 1 Z BusDhighnibble [4] $end
$var wire 1 [ BusDhighnibble [3] $end
$var wire 1 \ BusDhighnibble [2] $end
$var wire 1 ] BusDhighnibble [1] $end
$var wire 1 ^ BusDhighnibble [0] $end
$var wire 1 _ BusDlownibble [6] $end
$var wire 1 ` BusDlownibble [5] $end
$var wire 1 a BusDlownibble [4] $end
$var wire 1 b BusDlownibble [3] $end
$var wire 1 c BusDlownibble [2] $end
$var wire 1 d BusDlownibble [1] $end
$var wire 1 e BusDlownibble [0] $end
$var wire 1 f IR [15] $end
$var wire 1 g IR [14] $end
$var wire 1 h IR [13] $end
$var wire 1 i IR [12] $end
$var wire 1 j IR [11] $end
$var wire 1 k IR [10] $end
$var wire 1 l IR [9] $end
$var wire 1 m IR [8] $end
$var wire 1 n IR [7] $end
$var wire 1 o IR [6] $end
$var wire 1 p IR [5] $end
$var wire 1 q IR [4] $end
$var wire 1 r IR [3] $end
$var wire 1 s IR [2] $end
$var wire 1 t IR [1] $end
$var wire 1 u IR [0] $end
$var wire 1 v K [1] $end
$var wire 1 w K [0] $end
$var wire 1 x MW $end
$var wire 1 y PCout [7] $end
$var wire 1 z PCout [6] $end
$var wire 1 { PCout [5] $end
$var wire 1 | PCout [4] $end
$var wire 1 } PCout [3] $end
$var wire 1 ~ PCout [2] $end
$var wire 1 !! PCout [1] $end
$var wire 1 "! PCout [0] $end
$var wire 1 #! PCouthighnibble [6] $end
$var wire 1 $! PCouthighnibble [5] $end
$var wire 1 %! PCouthighnibble [4] $end
$var wire 1 &! PCouthighnibble [3] $end
$var wire 1 '! PCouthighnibble [2] $end
$var wire 1 (! PCouthighnibble [1] $end
$var wire 1 )! PCouthighnibble [0] $end
$var wire 1 *! PCoutlownibble [6] $end
$var wire 1 +! PCoutlownibble [5] $end
$var wire 1 ,! PCoutlownibble [4] $end
$var wire 1 -! PCoutlownibble [3] $end
$var wire 1 .! PCoutlownibble [2] $end
$var wire 1 /! PCoutlownibble [1] $end
$var wire 1 0! PCoutlownibble [0] $end

$scope module i1 $end
$var wire 1 1! gnd $end
$var wire 1 2! vcc $end
$var wire 1 3! unknown $end
$var tri1 1 4! devclrn $end
$var tri1 1 5! devpor $end
$var tri1 1 6! devoe $end
$var wire 1 7! ~QUARTUS_CREATED_GND~I_combout $end
$var wire 1 8! Clock~input_o $end
$var wire 1 9! Clock~inputCLKENA0_outclk $end
$var wire 1 :! ResetN~input_o $end
$var wire 1 ;! inst2|inst13~DUPLICATE_q $end
$var wire 1 <! inst2|inst~DUPLICATE_q $end
$var wire 1 =! inst2|inst9~q $end
$var wire 1 >! inst324|WideOr4~0_combout $end
$var wire 1 ?! inst324|WideOr4~1_combout $end
$var wire 1 @! inst2|inst20~combout $end
$var wire 1 A! DataIn[6]~input_o $end
$var wire 1 B! inst324|IR[10]~3_combout $end
$var wire 1 C! inst324|IR[10]~4_combout $end
$var wire 1 D! inst25|inst|inst3~0_combout $end
$var wire 1 E! inst25|inst|inst3~1_combout $end
$var wire 1 F! DataIn[5]~input_o $end
$var wire 1 G! DataIn[4]~input_o $end
$var wire 1 H! inst324|WideOr5~0_combout $end
$var wire 1 I! inst2|inst25~combout $end
$var wire 1 J! inst22|inst2|inst30~q $end
$var wire 1 K! inst22|inst6|inst2~1_combout $end
$var wire 1 L! inst22|inst3|inst30~q $end
$var wire 1 M! inst22|inst6|inst2~0_combout $end
$var wire 1 N! inst22|inst4|inst30~q $end
$var wire 1 O! inst2|inst23~q $end
$var wire 1 P! inst2|inst28~q $end
$var wire 1 Q! inst2|inst38~DUPLICATE_q $end
$var wire 1 R! inst324|WideOr7~1_combout $end
$var wire 1 S! inst324|WideOr7~0_combout $end
$var wire 1 T! inst2|inst33~q $end
$var wire 1 U! inst324|WideOr8~1_combout $end
$var wire 1 V! inst324|WideOr8~0_combout $end
$var wire 1 W! inst22|inst1|comb_5|inst~0_combout $end
$var wire 1 X! inst2|inst31|inst~0_combout $end
$var wire 1 Y! inst2|inst31|inst~1_combout $end
$var wire 1 Z! inst2|inst28~DUPLICATE_q $end
$var wire 1 [! DataIn[7]~input_o $end
$var wire 1 \! inst22|inst4|inst40~feeder_combout $end
$var wire 1 ]! inst22|inst4|inst40~q $end
$var wire 1 ^! inst22|inst2|inst40~q $end
$var wire 1 _! inst324|IR[12]~1_combout $end
$var wire 1 `! inst22|inst3|inst40~q $end
$var wire 1 a! inst2|inst18~q $end
$var wire 1 b! inst324|WideOr11~1_combout $end
$var wire 1 c! inst324|WideOr11~0_combout $end
$var wire 1 d! inst23|inst|inst~0_combout $end
$var wire 1 e! inst23|inst|inst~1_combout $end
$var wire 1 f! inst25|inst|inst3~2_combout $end
$var wire 1 g! inst22|inst5|inst40~feeder_combout $end
$var wire 1 h! inst22|inst10~combout $end
$var wire 1 i! inst22|inst5|inst40~q $end
$var wire 1 j! inst22|inst1|comb_3|inst~0_combout $end
$var wire 1 k! inst2|inst41|inst~0_combout $end
$var wire 1 l! inst2|inst41|inst~1_combout $end
$var wire 1 m! inst2|inst38~q $end
$var wire 1 n! inst22|inst6|inst2~2_combout $end
$var wire 1 o! inst22|inst2|inst25~q $end
$var wire 1 p! inst22|inst5|inst25~q $end
$var wire 1 q! inst22|inst4|inst25~q $end
$var wire 1 r! inst22|inst1|comb_6|inst~0_combout $end
$var wire 1 s! inst24|inst2|inst3|inst3|inst3~0_combout $end
$var wire 1 t! inst24|inst2|inst|inst18~0_combout $end
$var wire 1 u! inst324|WideOr9~0_combout $end
$var wire 1 v! DataIn[2]~input_o $end
$var wire 1 w! DataIn[1]~input_o $end
$var wire 1 x! inst22|inst5|inst5~q $end
$var wire 1 y! inst22|inst3|inst5~q $end
$var wire 1 z! inst22|inst2|inst5~q $end
$var wire 1 {! inst23|inst8|inst3~1_combout $end
$var wire 1 |! inst22|inst5|inst10~feeder_combout $end
$var wire 1 }! inst22|inst5|inst10~q $end
$var wire 1 ~! inst22|inst4|inst10~feeder_combout $end
$var wire 1 !" inst22|inst4|inst10~q $end
$var wire 1 "" inst22|inst2|inst10~q $end
$var wire 1 #" inst22|inst1|comb_9|inst~0_combout $end
$var wire 1 $" inst23|inst8|inst3~0_combout $end
$var wire 1 %" inst24|inst2|inst|inst4|inst4~combout $end
$var wire 1 &" inst24|inst2|inst3|inst7|inst3~0_combout $end
$var wire 1 '" inst25|inst7|inst3~0_combout $end
$var wire 1 (" inst22|inst3|inst10~q $end
$var wire 1 )" inst23|inst7|inst3~0_combout $end
$var wire 1 *" inst23|inst7|inst3~1_combout $end
$var wire 1 +" inst23|inst6|inst3~1_combout $end
$var wire 1 ," inst22|inst3|inst15~q $end
$var wire 1 -" inst22|inst4|inst15~q $end
$var wire 1 ." inst22|inst5|inst15~q $end
$var wire 1 /" inst22|inst1|comb_8|inst~0_combout $end
$var wire 1 0" inst24|inst2|inst3|inst6|inst3~0_combout $end
$var wire 1 1" inst24|inst2|inst|inst12|inst~combout $end
$var wire 1 2" inst24|inst2|inst|inst6~0_combout $end
$var wire 1 3" inst24|inst2|inst3|inst6|inst3~1_combout $end
$var wire 1 4" inst25|inst6|inst3~0_combout $end
$var wire 1 5" inst22|inst2|inst15~q $end
$var wire 1 6" inst23|inst6|inst3~0_combout $end
$var wire 1 7" inst24|inst2|inst|inst10~0_combout $end
$var wire 1 8" DataIn[3]~input_o $end
$var wire 1 9" inst25|inst5|inst3~0_combout $end
$var wire 1 :" inst22|inst5|inst20~q $end
$var wire 1 ;" inst22|inst3|inst20~q $end
$var wire 1 <" inst22|inst4|inst20~q $end
$var wire 1 =" inst22|inst2|inst20~q $end
$var wire 1 >" inst23|inst5|inst~0_combout $end
$var wire 1 ?" inst22|inst1|comb_7|inst~0_combout $end
$var wire 1 @" inst24|inst2|inst|inst16|inst~combout $end
$var wire 1 A" inst24|inst2|inst|inst16|inst3~combout $end
$var wire 1 B" inst24|inst2|inst3|inst3|inst3~1_combout $end
$var wire 1 C" inst25|inst3|inst3~0_combout $end
$var wire 1 D" inst22|inst3|inst25~q $end
$var wire 1 E" inst23|inst3|inst~0_combout $end
$var wire 1 F" inst23|inst3|inst~1_combout $end
$var wire 1 G" inst25|inst2|inst3~0_combout $end
$var wire 1 H" inst22|inst5|inst30~q $end
$var wire 1 I" inst23|inst2|inst~0_combout $end
$var wire 1 J" inst23|inst2|inst~1_combout $end
$var wire 1 K" inst25|inst1|inst3~0_combout $end
$var wire 1 L" inst22|inst4|inst35~q $end
$var wire 1 M" inst22|inst5|inst35~q $end
$var wire 1 N" inst22|inst3|inst35~q $end
$var wire 1 O" inst22|inst2|inst35~q $end
$var wire 1 P" inst23|inst1|inst~0_combout $end
$var wire 1 Q" inst23|inst1|inst~1_combout $end
$var wire 1 R" inst24|inst2|inst|inst26~0_combout $end
$var wire 1 S" inst22|inst1|comb_4|inst~0_combout $end
$var wire 1 T" inst24|inst2|inst|inst22~0_combout $end
$var wire 1 U" inst24|inst2|inst|inst24|inst5~combout $end
$var wire 1 V" inst24|inst2|inst3|inst1|inst3~0_combout $end
$var wire 1 W" inst2|inst36|inst~0_combout $end
$var wire 1 X" inst2|inst36|inst~1_combout $end
$var wire 1 Y" inst2|inst33~DUPLICATE_q $end
$var wire 1 Z" inst324|WideOr1~1_combout $end
$var wire 1 [" inst324|WideOr1~3_combout $end
$var wire 1 \" inst6|K[0]~3_combout $end
$var wire 1 ]" inst2|inst26|inst~0_combout $end
$var wire 1 ^" inst2|inst26|inst~1_combout $end
$var wire 1 _" inst2|inst23~DUPLICATE_q $end
$var wire 1 `" inst324|IR[12]~0_combout $end
$var wire 1 a" inst324|WideOr2~0_combout $end
$var wire 1 b" DataIn[0]~input_o $end
$var wire 1 c" inst25|inst8|inst3~0_combout $end
$var wire 1 d" inst25|inst8|inst3~1_combout $end
$var wire 1 e" inst22|inst4|inst5~q $end
$var wire 1 f" inst22|inst1|comb_10|inst~0_combout $end
$var wire 1 g" inst2|inst7|inst~0_combout $end
$var wire 1 h" inst2|inst7|inst~1_combout $end
$var wire 1 i" inst2|inst~q $end
$var wire 1 j" inst324|WideOr0~0_combout $end
$var wire 1 k" inst23|inst5|inst~1_combout $end
$var wire 1 l" inst24|inst2|inst|inst12|inst5~combout $end
$var wire 1 m" inst24|inst2|inst3|inst5|inst3~0_combout $end
$var wire 1 n" inst24|inst2|inst3|inst8|inst3~0_combout $end
$var wire 1 o" inst6|K~0_combout $end
$var wire 1 p" inst6|K~1_combout $end
$var wire 1 q" inst324|WideOr5~1_combout $end
$var wire 1 r" inst2|inst21|inst~0_combout $end
$var wire 1 s" inst2|inst21|inst~1_combout $end
$var wire 1 t" inst2|inst18~DUPLICATE_q $end
$var wire 1 u" inst324|WideOr3~0_combout $end
$var wire 1 v" inst324|WideOr3~1_combout $end
$var wire 1 w" inst24|inst2|inst|inst16|inst4~combout $end
$var wire 1 x" inst24|inst2|inst3|inst2|inst3~1_combout $end
$var wire 1 y" inst24|inst2|inst3|inst2|inst3~0_combout $end
$var wire 1 z" inst2|inst16|inst~0_combout $end
$var wire 1 {" inst2|inst16|inst~1_combout $end
$var wire 1 |" inst2|inst13~q $end
$var wire 1 }" inst324|IR[12]~2_combout $end
$var wire 1 ~" inst24|inst2|inst3|inst|inst3~0_combout $end
$var wire 1 !# inst24|inst2|inst|inst32|inst2~0_combout $end
$var wire 1 "# inst24|inst2|inst3|inst|inst3~1_combout $end
$var wire 1 ## inst2|inst11|inst~0_combout $end
$var wire 1 $# inst2|inst11|inst~1_combout $end
$var wire 1 %# inst2|inst9~DUPLICATE_q $end
$var wire 1 &# inst324|WideOr1~0_combout $end
$var wire 1 '# inst324|WideOr1~2_combout $end
$var wire 1 (# inst324|WideOr6~0_combout $end
$var wire 1 )# inst27|WideOr0~0_combout $end
$var wire 1 *# inst27|WideOr1~0_combout $end
$var wire 1 +# inst27|WideOr2~0_combout $end
$var wire 1 ,# inst27|WideOr3~0_combout $end
$var wire 1 -# inst27|WideOr4~0_combout $end
$var wire 1 .# inst27|WideOr5~0_combout $end
$var wire 1 /# inst27|WideOr6~0_combout $end
$var wire 1 0# inst26|WideOr0~0_combout $end
$var wire 1 1# inst26|WideOr1~0_combout $end
$var wire 1 2# inst26|WideOr2~0_combout $end
$var wire 1 3# inst26|WideOr3~0_combout $end
$var wire 1 4# inst26|WideOr4~0_combout $end
$var wire 1 5# inst26|WideOr5~0_combout $end
$var wire 1 6# inst26|WideOr6~0_combout $end
$var wire 1 7# inst30|WideOr0~0_combout $end
$var wire 1 8# inst30|WideOr1~0_combout $end
$var wire 1 9# inst30|WideOr2~0_combout $end
$var wire 1 :# inst30|WideOr3~0_combout $end
$var wire 1 ;# inst30|WideOr4~0_combout $end
$var wire 1 <# inst30|WideOr5~0_combout $end
$var wire 1 =# inst30|WideOr6~0_combout $end
$var wire 1 ># inst31|WideOr0~0_combout $end
$var wire 1 ?# inst31|WideOr1~0_combout $end
$var wire 1 @# inst31|WideOr2~0_combout $end
$var wire 1 A# inst31|WideOr3~0_combout $end
$var wire 1 B# inst31|WideOr4~0_combout $end
$var wire 1 C# inst31|WideOr5~0_combout $end
$var wire 1 D# inst31|WideOr6~0_combout $end
$var wire 1 E# inst28|WideOr0~0_combout $end
$var wire 1 F# inst28|WideOr1~0_combout $end
$var wire 1 G# inst28|WideOr2~0_combout $end
$var wire 1 H# inst28|WideOr3~0_combout $end
$var wire 1 I# inst28|WideOr4~0_combout $end
$var wire 1 J# inst28|WideOr5~0_combout $end
$var wire 1 K# inst28|WideOr6~0_combout $end
$var wire 1 L# inst29|WideOr0~0_combout $end
$var wire 1 M# inst29|WideOr1~0_combout $end
$var wire 1 N# inst29|WideOr2~0_combout $end
$var wire 1 O# inst29|WideOr3~0_combout $end
$var wire 1 P# inst29|WideOr4~0_combout $end
$var wire 1 Q# inst29|WideOr5~0_combout $end
$var wire 1 R# inst29|WideOr6~0_combout $end
$var wire 1 S# inst6|K~2_combout $end
$var wire 1 T# inst1|WideOr0~0_combout $end
$var wire 1 U# inst1|WideOr1~0_combout $end
$var wire 1 V# inst1|WideOr2~0_combout $end
$var wire 1 W# inst1|WideOr3~0_combout $end
$var wire 1 X# inst1|WideOr4~0_combout $end
$var wire 1 Y# inst1|WideOr5~0_combout $end
$var wire 1 Z# inst1|WideOr6~0_combout $end
$var wire 1 [# inst|WideOr0~0_combout $end
$var wire 1 \# inst|WideOr1~0_combout $end
$var wire 1 ]# inst|WideOr2~0_combout $end
$var wire 1 ^# inst|WideOr3~0_combout $end
$var wire 1 _# inst|WideOr4~0_combout $end
$var wire 1 `# inst|WideOr5~0_combout $end
$var wire 1 a# inst|WideOr6~0_combout $end
$var wire 1 b# inst5|CW [19] $end
$var wire 1 c# inst5|CW [18] $end
$var wire 1 d# inst5|CW [17] $end
$var wire 1 e# inst5|CW [16] $end
$var wire 1 f# inst5|CW [15] $end
$var wire 1 g# inst5|CW [14] $end
$var wire 1 h# inst5|CW [13] $end
$var wire 1 i# inst5|CW [12] $end
$var wire 1 j# inst5|CW [11] $end
$var wire 1 k# inst5|CW [10] $end
$var wire 1 l# inst5|CW [9] $end
$var wire 1 m# inst5|CW [8] $end
$var wire 1 n# inst5|CW [7] $end
$var wire 1 o# inst5|CW [6] $end
$var wire 1 p# inst5|CW [5] $end
$var wire 1 q# inst5|CW [4] $end
$var wire 1 r# inst5|CW [3] $end
$var wire 1 s# inst5|CW [2] $end
$var wire 1 t# inst5|CW [1] $end
$var wire 1 u# inst5|CW [0] $end
$upscope $end
$upscope $end
$enddefinitions $end
#0
$dumpvars
0!
b10 "
1#
0+
0*
0)
0(
0'
0&
0%
0$
02
01
00
0/
0.
0-
1,
09
08
07
06
05
04
13
0A
0@
0?
0>
0=
0<
0;
0:
0H
0G
0F
0E
0D
0C
1B
0O
0N
0M
0L
0K
0J
1I
0W
1V
0U
0T
0S
0R
0Q
0P
0^
0]
0\
0[
0Z
0Y
1X
0e
0d
1c
0b
0a
1`
0_
0u
0t
0s
0r
0q
0p
0o
0n
0m
0l
0k
0j
0i
1h
0g
0f
0w
0v
0x
0"!
0!!
0~
0}
0|
0{
0z
0y
0)!
0(!
0'!
0&!
0%!
0$!
1#!
00!
0/!
0.!
0-!
0,!
0+!
1*!
01!
12!
x3!
14!
15!
16!
07!
08!
09!
1:!
0;!
0<!
0=!
1>!
0?!
0@!
0A!
0B!
0C!
0D!
0E!
0F!
0G!
1H!
0I!
0J!
0K!
0L!
0M!
0N!
0O!
0P!
0Q!
1R!
1S!
0T!
1U!
1V!
0W!
0X!
0Y!
0Z!
0[!
0\!
0]!
0^!
1_!
0`!
0a!
0b!
0c!
0d!
0e!
0f!
0g!
0h!
0i!
0j!
0k!
0l!
0m!
1n!
0o!
0p!
0q!
0r!
0s!
0t!
0u!
0v!
1w!
0x!
0y!
0z!
0{!
1|!
0}!
1~!
0!"
0""
0#"
0$"
0%"
0&"
1'"
0("
0)"
0*"
0+"
0,"
0-"
0."
0/"
00"
01"
02"
03"
04"
05"
06"
07"
08"
09"
0:"
0;"
0<"
0="
0>"
0?"
0@"
0A"
0B"
0C"
0D"
0E"
0F"
0G"
0H"
0I"
0J"
0K"
0L"
0M"
0N"
0O"
0P"
0Q"
0R"
0S"
0T"
1U"
0V"
0W"
0X"
0Y"
1Z"
0["
0\"
0]"
0^"
0_"
1`"
1a"
0b"
0c"
0d"
0e"
0f"
1g"
1h"
0i"
0j"
0k"
0l"
0m"
0n"
0o"
0p"
0q"
0r"
0s"
0t"
0u"
0v"
0w"
1x"
0y"
0z"
0{"
0|"
0}"
0~"
0!#
0"#
0##
0$#
0%#
0&#
0'#
1(#
0)#
0*#
0+#
0,#
0-#
0.#
0/#
00#
01#
02#
03#
04#
05#
06#
07#
08#
09#
0:#
0;#
0<#
0=#
0>#
0?#
0@#
0A#
0B#
0C#
0D#
0E#
0F#
0G#
0H#
0I#
0J#
0K#
1L#
1M#
0N#
0O#
1P#
0Q#
0R#
0S#
0T#
0U#
0V#
0W#
0X#
0Y#
0Z#
0[#
0\#
0]#
0^#
0_#
0`#
0a#
zu#
zt#
zs#
1r#
zq#
zp#
zo#
zn#
zm#
zl#
zk#
zj#
zi#
zh#
zg#
zf#
ze#
zd#
zc#
zb#
$end
#50000
1!
18!
19!
1i"
1""
1<!
1"!
1)"
1##
0g"
0H!
1#"
1a#
1^#
1]#
1\#
1+!
1,!
1-!
10!
1*
0n!
1K!
10#
1&"
1q"
0h"
1$#
1*"
14#
11#
14
17
1@
1o
03
1>#
1B#
1?#
1J
1M
0I
#100000
0!
08!
09!
#150000
1!
18!
19!
1%#
0i"
1("
1=!
0<!
0"!
1!!
1u"
1[#
1g"
1H!
0>!
1j"
0]#
0a"
0a#
1_#
0^#
1}"
1i
0-!
1.!
00!
0h
0,!
1f
0*!
1M!
0K!
1!#
1T"
1R"
1t!
1y"
0x"
1D!
1?!
0q"
1h"
1v"
0*"
0@
1j
0o
1n
0y"
0>#
0&"
1@"
17"
12"
11"
1E!
0D!
1G"
0B#
0?#
0J
0M
1R
1I
1l"
1A"
1E#
0G"
0'"
1I#
1F#
1Y
1\
0V
0R
0X
0U"
0L#
0E#
0P#
0M#
0~!
0|!
0I#
0F#
0Y
0\
0`
0c
1X
1_
#200000
0!
08!
09!
#250000
1!
18!
19!
1i"
1<!
1"!
0##
1z"
0g"
0H!
0_#
1]#
1u!
1s
1,!
0.!
1h!
0M!
07"
01"
1q"
0h"
1{"
0$#
1+"
1?
1o
0l"
0A"
1>#
1D#
1A#
1@#
14"
1U
1K
1L
1O
0I
1U"
1L#
1R#
1O#
1N#
1a
1b
1e
0_
#300000
0!
08!
09!
#350000
1!
18!
19!
0%#
0i"
1."
1;!
1|"
0=!
0<!
0"!
0!!
1~
1&#
0u"
1g"
1>!
1a#
1^#
0\#
0u!
0}"
0i
0s
0+!
1-!
10!
0h!
0!#
0T"
0R"
0t!
1["
1"#
1y"
1n"
1m"
1c"
1V"
1B"
13"
0E!
1D!
17"
11"
0?!
1h"
0v"
1'#
0+"
0?
1g
0j
0n
03"
1l"
1A"
0B"
0"#
0V"
1x"
0>#
0n"
0m"
0c"
0@"
07"
02"
01"
1&"
1K"
1G"
1C"
19"
1f!
1d"
0D#
0A#
0@#
0K
0L
0O
1W
1P
1T
1S
1R
1Q
1I
0l"
0A"
1o"
0y"
1B"
1m"
1E#
1'"
0d"
09"
0K"
0f!
0C"
04"
0O#
0N#
1M#
1J#
1I#
1H#
1g!
1\!
1[
1\
1]
1`
0a
0b
0U
0S
0P
0Q
0T
0W
1V
0X
0B"
0m"
19"
1C"
0G"
0R#
1P#
0J#
0H#
1F#
0g!
0\!
1~!
1|!
1Y
0[
0]
1c
0e
0R
1S
1T
0E#
09"
0C"
1K#
0I#
1H#
1G#
0P#
1O#
0M#
0`
1b
0c
1Z
1[
0\
1^
0S
0T
1X
0K#
0H#
0G#
0F#
1P#
0O#
1M#
1`
0b
1c
0Y
0Z
0[
0^
#400000
0!
08!
09!
#450000
1!
18!
19!
1i"
1<!
1"!
1b!
0&#
1##
0g"
0R!
1H!
1B!
0>!
0j"
0a#
1`#
0^#
0-!
1/!
00!
0f
1M!
0S!
0["
0r#
0o"
1?!
1C!
0q"
0h"
1$#
0'#
1c!
1*"
1@
1u
0g
0o
1k
1n
1x
1q
1>#
0&"
1r#
12"
0#"
1B#
1?#
1J
1M
0*
0x
0I
00#
1&"
0'"
04#
01#
04
07
0V
13
0L#
1'"
0P#
0M#
0~!
0|!
0`
0c
1V
1_
1L#
1P#
1M#
1~!
1|!
1`
1c
0_
#500000
0!
08!
09!
#550000
1!
18!
19!
1%#
0i"
1!"
1=!
0<!
0"!
1!!
0b!
1u"
1g"
1R!
1>!
1#"
0]#
0,!
1*
1n!
0M!
1S!
1!#
1T"
1R"
1t!
10#
13"
0&"
0?!
1h"
1v"
0c!
14#
11#
14
17
0u
1j
0n
03
0q
1B"
1"#
1V"
0x"
1n"
1m"
1c"
1@"
17"
11"
0'"
14"
1U
0V
03"
1l"
1A"
1y"
1d"
19"
1K"
1f!
1C"
1R#
0P#
1O#
1N#
0M#
0~!
0|!
0`
1a
1b
0c
1e
1S
1P
1Q
1T
1W
0y"
0U"
0B"
0m"
1E#
1G"
04"
1K#
1F#
1g!
1\!
0O#
0N#
1M#
1`
0a
0b
1Y
1^
0U
1R
0X
0"#
0V"
09"
0C"
0G"
0R#
1N#
0M#
0K#
1J#
1I#
1H#
0F#
0Y
1[
1\
1]
0^
0`
1a
0e
0R
0S
0T
0E#
0L#
0K"
0f!
0H#
1R#
1O#
1M#
1`
1b
1e
0[
0P
0Q
1_
1X
0J#
0I#
0g!
0\!
0\
0]
#600000
0!
08!
09!
#650000
1!
18!
19!
1i"
0""
1z!
1<!
1"!
1$"
0)"
0[#
1&#
0##
0z"
0u"
1r"
0g"
0U!
0R!
0B!
1f"
1{!
0#"
1j"
0`#
1^#
1]#
1\#
1a"
1h
1+!
1,!
1-!
0/!
1f
0*
1A
1+
1*!
0!#
0T"
0R"
0t!
0S!
0V!
1["
0n!
1%"
0D!
00#
0l"
0A"
13"
1&"
0n"
0c"
0C!
0h"
1s"
0v"
0{"
0$#
1'#
0*"
0d"
0{!
16#
04#
13#
12#
0B#
1@#
1K
0M
15
16
07
19
0A
0W
0@
1g
0j
0k
13
1r
1q
1y"
1U"
1l"
1A"
03"
1V"
1x"
0>#
1n"
1c"
0@"
07"
02"
01"
0%"
1'"
1\"
0f"
1/"
0@#
0?#
0R#
0O#
0N#
0M#
0`
0a
0b
0e
0J
0K
1)
0+
1w
1V
1I
0l"
0A"
0&"
0y"
1B"
1m"
0V"
10#
1z"
11"
0n"
0c"
0r"
1L#
01#
1P#
1M#
1~!
1|!
1`
1c
04
0_
03
13"
0B"
0m"
0s"
1{"
#700000
0!
08!
09!
#750000
1!
18!
19!
0%#
0i"
0=!
0<!
0"!
0!!
1U!
1[#
1R!
0H!
0a"
1a#
0\#
0+!
10!
0h
0*!
1S!
1V!
1D!
1q"
0\"
0w
1o
0r
0q
1g"
14"
0'"
1f"
0/"
0)
1+
0V
1U
00#
01"
1n"
1c"
1h"
11#
1R#
0P#
1O#
1N#
0M#
0~!
0|!
0`
1a
1b
0c
1e
14
13
03"
1d"
1W
04"
0R#
1Q#
0O#
0b
1d
0e
0U
0L#
1R#
0Q#
1O#
1M#
1`
1b
0d
1e
1_
#800000
0!
08!
09!
#850000
1!
18!
19!
1i"
1<!
1"!
1b!
0&#
1##
0g"
0R!
1H!
1B!
0>!
0j"
0a#
1`#
0^#
0-!
1/!
00!
0f
1M!
0S!
0["
0r#
1?!
1C!
0q"
0h"
1$#
0'#
1c!
1{!
1A
1u
0g
0o
1k
1n
1x
1q
0n"
0c"
1)"
1%"
0$"
1r#
0f"
1#"
1D#
1A#
1@#
1?#
0{!
0A
1J
1K
1L
1O
1*
0+
0x
0%"
13"
12"
10#
1*"
0d"
0D#
0A#
0@#
0?#
06#
14#
03#
02#
05
06
17
09
0J
0K
0L
0O
0W
1@
03
1>#
14"
0R#
0O#
0N#
0M#
1B#
1?#
1J
1M
0`
0a
0b
0e
1U
0I
1L#
1R#
1O#
1N#
1a
1b
1e
0_
#900000
0!
08!
09!
#950000
1!
18!
19!
1%#
0i"
1-"
0!"
1=!
0<!
0"!
1!!
0b!
1u"
1g"
1R!
1>!
0#"
1/"
0]#
0,!
1)
0*
1n!
0M!
1S!
1!#
1T"
1R"
1t!
11"
10"
03"
1&"
0?!
1h"
1v"
0c!
16#
04#
13#
12#
01#
04
15
16
07
19
0u
1j
0n
0q
13"
1B"
1"#
1V"
0x"
0)"
1$"
1n"
1m"
1c"
1@"
17"
01"
1'"
04"
1f"
0/"
1{!
1A
0)
1+
0U
1V
03"
1%"
1y"
0n"
0c"
00#
11"
00"
1d"
19"
0*"
1K"
1f!
1C"
14"
0B#
1@#
11#
0R#
1P#
0O#
0N#
1M#
1~!
1|!
1`
0a
0b
1c
0e
14
1K
0M
1U
1S
1P
1Q
0@
1T
1W
13
1l"
1A"
0&"
1E#
0>#
0d"
1G"
04"
1Q#
1O#
0M#
1K#
1F#
1g!
1\!
1D#
1A#
1L
1O
1Y
1^
0`
1b
1d
0U
1R
0W
1I
0X
0y"
0U"
0B"
0m"
0'"
0Q#
0P#
0K#
1J#
1I#
1H#
0F#
0Y
1[
1\
1]
0^
0c
0d
0V
0"#
0V"
09"
0C"
0G"
0O#
0~!
0|!
0b
0R
0S
0T
0E#
0L#
0K"
0f!
0H#
0[
0P
0Q
1_
1X
0J#
0I#
0g!
0\!
0\
0]
#1000000
0!
08!
09!
