ZeroDetect/simulation/qsim/ZeroDetect.msim.vcd
$comment
	File created using the following command:
		vcd file ZeroDetect.msim.vcd -direction
$end
$date
	Fri Apr 17 15:41:13 2020
$end
$version
	ModelSim Version 10.5b
$end
$timescale
	1ps
$end

$scope module ZeroDetect_vlg_vec_tst $end
$var reg 8 ! G [7:0] $end
$var wire 1 " Z $end

$scope module i1 $end
$var wire 1 # gnd $end
$var wire 1 $ vcc $end
$var wire 1 % unknown $end
$var tri1 1 & devclrn $end
$var tri1 1 ' devpor $end
$var tri1 1 ( devoe $end
$var wire 1 ) ~QUARTUS_CREATED_GND~I_combout $end
$var wire 1 * G[5]~input_o $end
$var wire 1 + G[4]~input_o $end
$var wire 1 , G[6]~input_o $end
$var wire 1 - G[2]~input_o $end
$var wire 1 . G[0]~input_o $end
$var wire 1 / G[3]~input_o $end
$var wire 1 0 G[1]~input_o $end
$var wire 1 1 Z~0_combout $end
$var wire 1 2 G[7]~input_o $end
$var wire 1 3 Z~1_combout $end
$upscope $end
$upscope $end
$enddefinitions $end
#0
$dumpvars
b0 !
1"
0#
1$
x%
1&
1'
1(
0)
0*
0+
0,
0-
0.
0/
00
11
02
03
$end
#100000
b1 !
1.
01
13
0"
#200000
b11 !
b10 !
0.
10
#300000
b11 !
1.
#400000
b111 !
b101 !
b100 !
0.
00
1-
#500000
b101 !
1.
#600000
b111 !
b110 !
0.
10
#700000
b111 !
1.
#800000
b1111 !
b1011 !
b1001 !
b1000 !
0.
00
0-
1/
#900000
b1001 !
1.
#1000000
b1011 !
b1010 !
0.
10
#1100000
b1011 !
1.
#1200000
b1111 !
b1101 !
b1100 !
0.
00
1-
#1300000
b1101 !
1.
#1400000
b1111 !
b1110 !
0.
10
#1500000
b1111 !
1.
#1600000
b11111 !
b10111 !
b10011 !
b10001 !
b10000 !
0.
00
0-
0/
1+
11
#1700000
b10001 !
1.
01
#1800000
b10011 !
b10010 !
0.
10
#1900000
b10011 !
1.
