SevenSeg/simulation/qsim/SevenSeg.msim.vcd
$comment
	File created using the following command:
		vcd file SevenSeg.msim.vcd -direction
$end
$date
	Mon Feb 10 18:56:49 2020
$end
$version
	ModelSim Version 10.5b
$end
$timescale
	1ps
$end

$scope module SevenSeg_vlg_vec_tst $end
$var reg 4 ! B [3:0] $end
$var wire 1 " S [6] $end
$var wire 1 # S [5] $end
$var wire 1 $ S [4] $end
$var wire 1 % S [3] $end
$var wire 1 & S [2] $end
$var wire 1 ' S [1] $end
$var wire 1 ( S [0] $end

$scope module i1 $end
$var wire 1 ) gnd $end
$var wire 1 * vcc $end
$var wire 1 + unknown $end
$var tri1 1 , devclrn $end
$var tri1 1 - devpor $end
$var tri1 1 . devoe $end
$var wire 1 / S[0]~output_o $end
$var wire 1 0 S[1]~output_o $end
$var wire 1 1 S[2]~output_o $end
$var wire 1 2 S[3]~output_o $end
$var wire 1 3 S[4]~output_o $end
$var wire 1 4 S[5]~output_o $end
$var wire 1 5 S[6]~output_o $end
$var wire 1 6 B[0]~input_o $end
$var wire 1 7 B[2]~input_o $end
$var wire 1 8 B[3]~input_o $end
$var wire 1 9 B[1]~input_o $end
$var wire 1 : WideOr6~0_combout $end
$var wire 1 ; WideOr5~0_combout $end
$var wire 1 < WideOr4~0_combout $end
$var wire 1 = WideOr3~0_combout $end
$var wire 1 > WideOr2~0_combout $end
$var wire 1 ? WideOr1~0_combout $end
$var wire 1 @ WideOr0~0_combout $end
$upscope $end
$upscope $end
$enddefinitions $end
#0
$dumpvars
b0 !
x(
x'
x&
x%
x$
x#
x"
0)
1*
x+
1,
1-
1.
x/
x0
x1
x2
x3
x4
x5
06
07
08
09
x:
x;
x<
x=
x>
x?
x@
$end
#3474
0<
#3531
0;
#3634
0@
#3857
0>
#3858
0?
#3886
0:
#3889
0=
#7056
01
0&
#7065
03
0$
#7099
00
0'
#7101
02
0%
#7194
15
1"
#7286
0/
0(
#7561
04
0#
#100000
b1 !
#100690
16
#104290
1>
#104292
1?
#104300
1:
#104301
1=
#107533
13
1$
#107546
12
1%
#107782
1/
1(
#108054
14
1#
#200000
b11 !
b10 !
#200660
19
#200796
06
#203586
0=
#203591
0:
#203596
1@
#204653
0>
#204659
1<
#206798
02
0%
#206991
0/
0(
#207193
05
0"
#207861
03
0$
#208274
11
1&
#300000
b11 !
#300690
16
#304290
1>
#304300
0<
#307533
13
1$
#307882
01
0&
#400000
b111 !
b101 !
b100 !
#400680
17
#400766
09
#400796
06
#403947
0?
#403970
1;
#404674
1:
#404675
0;
#404677
1=
#407650
04
0#
#407922
12
1%
#408156
1/
1(
#500000
b101 !
#500690
16
#504284
1;
#504308
0:
#504309
0=
#507521
02
0%
#507708
0/
0(
#507890
10
1'
#600000
b111 !
b110 !
#600660
19
#600796
06
#603580
0@
#603587
0;
#603597
1?
#603602
1=
#604634
1@
#604653
0>
#604654
0?
#604659
1;
#604685
0=
#607861
03
0$
#700000
b111 !
#700690
16
#704275
0@
#704290
1>
#704292
1?
#704300
0;
#704301
1=
#707533
13
1$
#707546
12
1%
#707835
15
1"
#707868
00
0'
#708054
14
1#
#800000
b1111 !
b1011 !
b1001 !
b1000 !
#800640
18
#800766
09
#800786
07
#800796
06
#803953
0=
#804015
1@
#804333
0?
#804653
0>
#807165
02
0%
#807612
05
0"
#807861
03
0$
#808036
04
0#
#900000
b1001 !
#900690
16
#904290
1>
#907533
13
1$
#1000000
b1011 !
b1010 !
#1000660
19
#1000796
06
#1003584
0>
#1003603
1;
#1003607
1:
#1004675
0;
#1004677
1=
#1004682
0:
#1006792
03
0$
#1007922
12
1%
#1100000
b1011 !
#1100690
16
#1104284
1;
#1104300
1:
#1104309
0=
#1107521
02
0%
#1107782
1/
1(
#1107890
10
1'
#1200000
b1111 !
b1101 !
b1100 !
#1200680
17
#1200766
09
#1200796
06
#1203954
0;
#1203963
1?
#1204651
0@
#1204654
0?
#1204659
1;
1<
#1204682
0:
#1208082
0/
0(
#1208211
15
1"
#1208274
11
1&
#1300000
b1101 !
#1300690
16
#1304258
1@
#1304292
1?
#1304300
1:
0;
0<
#1307782
1/
1(
#1307855
05
0"
#1307868
00
0'
#1307882
01
0&
#1308054
14
1#
#1400000
b1111 !
b1110 !
#1400660
19
#1400796
06
#1403581
0?
#1403591
0:
#1403602
1=
#1403603
1;
1<
#1404685
0=
#1406991
0/
0(
#1407209
10
1'
#1407218
11
1&
#1407284
04
0#
#1500000
b1111 !
#1500690
16
#1504301
1=
#1507546
12
1%
