FunctionUnit/simulation/qsim/FunctionUnit.msim.vcd
$comment
	File created using the following command:
		vcd file FunctionUnit.msim.vcd -direction
$end
$date
	Fri Apr 17 18:03:17 2020
$end
$version
	ModelSim Version 10.5b
$end
$timescale
	1ps
$end

$scope module FunctionUnit_vlg_vec_tst $end
$var reg 8 ! A [7:0] $end
$var reg 8 " B [7:0] $end
$var reg 4 # FS [3:0] $end
$var wire 1 $ C $end
$var wire 1 % F [7] $end
$var wire 1 & F [6] $end
$var wire 1 ' F [5] $end
$var wire 1 ( F [4] $end
$var wire 1 ) F [3] $end
$var wire 1 * F [2] $end
$var wire 1 + F [1] $end
$var wire 1 , F [0] $end
$var wire 1 - N $end
$var wire 1 . V $end
$var wire 1 / Z $end

$scope module i1 $end
$var wire 1 0 gnd $end
$var wire 1 1 vcc $end
$var wire 1 2 unknown $end
$var tri1 1 3 devclrn $end
$var tri1 1 4 devpor $end
$var tri1 1 5 devoe $end
$var wire 1 6 ~QUARTUS_CREATED_GND~I_combout $end
$var wire 1 7 FS[1]~input_o $end
$var wire 1 8 FS[2]~input_o $end
$var wire 1 9 B[6]~input_o $end
$var wire 1 : inst2|inst|inst26~0_combout $end
$var wire 1 ; A[3]~input_o $end
$var wire 1 < B[3]~input_o $end
$var wire 1 = inst2|inst|inst16|inst~combout $end
$var wire 1 > B[1]~input_o $end
$var wire 1 ? inst2|inst|inst6~0_combout $end
$var wire 1 @ A[1]~input_o $end
$var wire 1 A B[0]~input_o $end
$var wire 1 B FS[0]~input_o $end
$var wire 1 C A[0]~input_o $end
$var wire 1 D inst2|inst|inst4|inst5~combout $end
$var wire 1 E A[2]~input_o $end
$var wire 1 F B[2]~input_o $end
$var wire 1 G inst2|inst|inst10~0_combout $end
$var wire 1 H inst2|inst|inst16|inst3~combout $end
$var wire 1 I A[4]~input_o $end
$var wire 1 J B[5]~input_o $end
$var wire 1 K inst2|inst|inst22~0_combout $end
$var wire 1 L inst2|inst|inst16|inst4~combout $end
$var wire 1 M B[4]~input_o $end
$var wire 1 N inst2|inst|inst18~0_combout $end
$var wire 1 O A[5]~input_o $end
$var wire 1 P inst2|inst|inst24|inst5~combout $end
$var wire 1 Q B[7]~input_o $end
$var wire 1 R inst2|inst|inst30~0_combout $end
$var wire 1 S A[6]~input_o $end
$var wire 1 T A[7]~input_o $end
$var wire 1 U inst2|inst|inst33~combout $end
$var wire 1 V inst2|inst|inst32|inst5~combout $end
$var wire 1 W FS[3]~input_o $end
$var wire 1 X inst2|inst|inst32|inst~combout $end
$var wire 1 Y inst2|inst3|inst|inst3~0_combout $end
$var wire 1 Z inst2|inst3|inst|inst3~1_combout $end
$var wire 1 [ inst2|inst|inst20|inst5~combout $end
$var wire 1 \ inst2|inst3|inst2|inst3~0_combout $end
$var wire 1 ] inst2|inst|inst24|inst~combout $end
$var wire 1 ^ inst2|inst3|inst2|inst3~1_combout $end
$var wire 1 _ inst2|inst|inst28|inst~combout $end
$var wire 1 ` inst2|inst3|inst1|inst3~0_combout $end
$var wire 1 a inst2|inst3|inst1|inst3~1_combout $end
$var wire 1 b inst2|inst3|inst6|inst3~0_combout $end
$var wire 1 c inst2|inst|inst12|inst~combout $end
$var wire 1 d inst2|inst3|inst6|inst3~1_combout $end
$var wire 1 e inst2|inst3|inst5|inst3~0_combout $end
$var wire 1 f inst2|inst|inst12|inst5~combout $end
$var wire 1 g inst2|inst3|inst5|inst3~1_combout $end
$var wire 1 h inst2|inst3|inst8|inst3~0_combout $end
$var wire 1 i inst2|inst3|inst3|inst3~0_combout $end
$var wire 1 j inst2|inst3|inst3|inst3~1_combout $end
$var wire 1 k inst2|inst3|inst7|inst3~0_combout $end
$var wire 1 l inst|Z~0_combout $end
$var wire 1 m inst|Z~combout $end
$var wire 1 n inst7|inst|inst3~0_combout $end
$var wire 1 o inst7|inst|inst3~1_combout $end
$var wire 1 p inst7|inst1|inst3~0_combout $end
$var wire 1 q inst7|inst1|inst3~1_combout $end
$var wire 1 r inst7|inst2|inst3~0_combout $end
$var wire 1 s inst7|inst2|inst3~1_combout $end
$var wire 1 t inst7|inst3|inst3~0_combout $end
$var wire 1 u inst7|inst3|inst3~1_combout $end
$var wire 1 v inst7|inst5|inst3~0_combout $end
$var wire 1 w inst7|inst5|inst3~1_combout $end
$var wire 1 x inst7|inst6|inst3~0_combout $end
$var wire 1 y inst7|inst6|inst3~1_combout $end
$var wire 1 z inst7|inst7|inst3~0_combout $end
$var wire 1 { inst7|inst7|inst3~1_combout $end
$var wire 1 | inst7|inst8|inst3~0_combout $end
$var wire 1 } inst7|inst8|inst3~1_combout $end
$upscope $end
$upscope $end
$enddefinitions $end
#0
$dumpvars
b11110000 !
b1111 "
b0 #
0$
0,
0+
0*
0)
1(
1'
1&
1%
1-
0.
0/
00
11
x2
13
14
15
06
07
08
09
0:
0;
1<
0=
1>
0?
0@
1A
0B
0C
0D
0E
1F
0G
0H
1I
0J
0K
0L
0M
0N
1O
1P
0Q
0R
1S
1T
0U
0V
0W
1X
0Y
1Z
1[
0\
1]
1^
1_
0`
1a
0b
0c
0d
0e
0f
0g
0h
0i
1j
0k
0l
1m
0n
1o
1p
1q
1r
1s
1t
1u
0v
0w
0x
0y
0z
0{
1|
0}
$end
#100000
b1 #
1B
1v
1i
1h
1e
1b
1`
1\
1Y
1}
1,
#200000
b11 #
b10 #
0B
17
0|
0v
0t
1k
1c
1G
1?
1=
1g
1d
1w
1{
1+
1)
1y
1*
#300000
b11 #
1B
1|
0r
0p
1n
0i
0h
0`
0\
0Y
1D
0k
1f
0d
1H
0}
0,
0j
0[
0P
0g
0y
0w
0{
0+
0)
0*
1l
0a
0^
0q
0Z
1V
0s
0u
0(
0'
1$
0-
0&
0m
0o
0%
1/
#400000
b111 #
b101 #
b100 #
0B
07
18
1k
0c
0_
0]
0X
1R
1N
1K
0G
0D
0?
0=
1:
1t
1r
1p
0n
0e
0b
1g
0H
0f
0k
1j
1^
1a
0l
1w
1q
1s
1Z
1{
1+
1-
1'
1&
1)
1m
0g
0j
1u
0{
0w
1o
1%
0)
0+
1(
0/
1l
0u
0(
#500000
b101 #
1B
1v
1i
1h
1e
1b
1`
1\
1Y
0l
1}
1,
#600000
b111 #
b110 #
0B
17
0|
0v
0t
1k
1c
1G
1?
1=
1g
1d
1w
1{
1+
1)
1y
1*
#700000
b111 #
1B
1|
0r
0p
1n
0i
0h
0`
0\
0Y
1D
0k
1f
0d
1H
0}
0,
1j
0g
0y
0w
0{
0+
0)
0*
1u
1(
#800000
b1111 #
b1011 #
b1001 #
b1000 #
0B
07
08
1W
0j
1g
1d
0a
0^
0c
1_
1]
1X
0R
0N
0K
0G
0D
0?
0=
0:
1t
1r
1p
0n
0e
0b
1w
0s
0q
0Z
0-
0&
0'
1)
0d
0g
0H
0f
0w
0o
0u
1y
1*
0(
0%
0)
1[
1P
1l
0y
0*
0m
0V
0$
1/
#900000
b1001 #
1B
1v
1k
1i
1h
1e
1b
1`
1\
1Y
1^
1a
1d
1g
0l
1j
1Z
1s
1q
1w
1}
1{
1+
1,
1)
1&
1'
1-
1m
1u
1y
1o
1%
1*
1(
0/
#1000000
b1011 #
b1010 #
0B
17
0|
0v
0t
1c
1G
1?
1=
#1100000
b1011 #
1B
1|
0r
0p
1n
0i
0`
0\
0Y
1D
1f
1H
0^
0a
0j
0Z
0s
0q
0&
0'
0-
0[
0P
0u
0o
0%
0(
1V
1$
#1200000
b1111 #
b1101 #
b1100 #
0B
07
18
0k
0h
0c
0_
0]
0X
1R
1N
1K
0G
0D
0?
0=
1:
1t
1r
1p
0n
0e
0b
1u
1s
1q
1o
1%
1&
1'
1(
0d
0g
0H
0f
0o
0q
0s
0u
0(
0'
0&
0%
1l
0m
1/
#1300000
b1101 #
1B
1v
1k
1i
1h
1e
1b
1`
1\
1Y
1^
1a
1d
1g
0l
1j
1Z
0w
0)
1-
1m
0/
#1400000
b1111 #
b1110 #
0B
17
0|
0v
0t
1c
1G
1?
1=
1w
1u
0}
0,
1(
1)
#1500000
b1111 #
1B
1|
0r
0p
1n
0i
0`
0\
0Y
1D
1f
1H
0^
0a
0j
0Z
1s
1q
1o
1}
1,
1%
1&
1'
0-
