GenReg8Bit/simulation/qsim/GenReg8Bit.msim.vcd
$comment
	File created using the following command:
		vcd file GenReg8Bit.msim.vcd -direction
$end
$date
	Sat Apr 25 14:23:09 2020
$end
$version
	ModelSim Version 10.5b
$end
$timescale
	1ps
$end

$scope module GenReg8Bit_vlg_vec_tst $end
$var reg 1 ! Clock $end
$var reg 8 " D [7:0] $end
$var reg 1 # Load $end
$var reg 1 $ ResetN $end
$var wire 1 % Q [7] $end
$var wire 1 & Q [6] $end
$var wire 1 ' Q [5] $end
$var wire 1 ( Q [4] $end
$var wire 1 ) Q [3] $end
$var wire 1 * Q [2] $end
$var wire 1 + Q [1] $end
$var wire 1 , Q [0] $end

$scope module i1 $end
$var wire 1 - gnd $end
$var wire 1 . vcc $end
$var wire 1 / unknown $end
$var tri1 1 0 devclrn $end
$var tri1 1 1 devpor $end
$var tri1 1 2 devoe $end
$var wire 1 3 ~QUARTUS_CREATED_GND~I_combout $end
$var wire 1 4 Clock~input_o $end
$var wire 1 5 Clock~inputCLKENA0_outclk $end
$var wire 1 6 D[7]~input_o $end
$var wire 1 7 inst40~feeder_combout $end
$var wire 1 8 ResetN~input_o $end
$var wire 1 9 Load~input_o $end
$var wire 1 : inst40~q $end
$var wire 1 ; D[6]~input_o $end
$var wire 1 < inst35~q $end
$var wire 1 = D[5]~input_o $end
$var wire 1 > inst30~feeder_combout $end
$var wire 1 ? inst30~q $end
$var wire 1 @ D[4]~input_o $end
$var wire 1 A inst25~feeder_combout $end
$var wire 1 B inst25~q $end
$var wire 1 C D[3]~input_o $end
$var wire 1 D inst20~feeder_combout $end
$var wire 1 E inst20~q $end
$var wire 1 F D[2]~input_o $end
$var wire 1 G inst15~q $end
$var wire 1 H D[1]~input_o $end
$var wire 1 I inst10~q $end
$var wire 1 J D[0]~input_o $end
$var wire 1 K inst5~q $end
$upscope $end
$upscope $end
$enddefinitions $end
#0
$dumpvars
0!
b11111111 "
0#
1$
0,
0+
0*
0)
0(
0'
0&
0%
0-
1.
x/
10
11
12
03
04
05
16
17
18
09
0:
1;
0<
1=
1>
0?
1@
1A
0B
1C
1D
0E
1F
0G
1H
0I
1J
0K
$end
#100000
1!
14
15
#200000
1#
0!
19
04
05
#300000
1!
14
15
1K
1I
1G
1E
1B
1?
1<
1:
1%
1&
1'
1(
1)
1*
1+
1,
#400000
0$
0!
08
04
05
0:
0<
0?
0B
0E
0G
0I
0K
0,
0+
0*
0)
0(
0'
0&
0%
#500000
1!
14
15
#600000
1$
0!
18
04
05
#700000
1!
14
15
1K
1I
1G
1E
1B
1?
1<
1:
1%
1&
1'
1(
1)
1*
1+
1,
#800000
0!
04
05
#900000
1!
14
15
