FullAdder/simulation/qsim/FullAdder.msim.vcd
$comment
	File created using the following command:
		vcd file FullAdder.msim.vcd -direction
$end
$date
	Mon Feb 10 19:15:18 2020
$end
$version
	ModelSim Version 10.5b
$end
$timescale
	1ps
$end

$scope module FullAdder_vlg_vec_tst $end
$var reg 1 ! A $end
$var reg 1 " B $end
$var reg 1 # Cin $end
$var wire 1 $ Cout $end
$var wire 1 % Sum $end

$scope module i1 $end
$var wire 1 & gnd $end
$var wire 1 ' vcc $end
$var wire 1 ( unknown $end
$var tri1 1 ) devclrn $end
$var tri1 1 * devpor $end
$var tri1 1 + devoe $end
$var wire 1 , Sum~output_o $end
$var wire 1 - Cout~output_o $end
$var wire 1 . A~input_o $end
$var wire 1 / Cin~input_o $end
$var wire 1 0 B~input_o $end
$var wire 1 1 inst2~0_combout $end
$var wire 1 2 inst5~0_combout $end
$upscope $end
$upscope $end
$enddefinitions $end
#0
$dumpvars
0!
0"
0#
x$
x%
0&
1'
x(
1)
1*
1+
x,
x-
0.
0/
00
x1
x2
$end
#3453
01
#3486
02
#6997
0,
0%
#7068
0-
0$
#100000
1#
#100670
1/
#103920
11
#107505
1,
1%
#200000
1"
0#
#200680
10
#200776
0/
#300000
1#
#300670
1/
#303881
12
#303922
01
#307466
0,
0%
#307501
1-
1$
#400000
1!
0"
0#
#400680
1.
#400776
0/
#400786
00
#404238
02
#404255
11
#407820
0-
0$
#407840
1,
1%
#500000
1#
#500670
1/
#503881
12
#503922
01
#507466
0,
0%
#507501
1-
1$
#600000
1"
0#
#600680
10
#600776
0/
#700000
1#
#700670
1/
#703920
11
#707505
1,
1%
