ZeroFill/simulation/qsim/ZeroFill.msim.vcd
$comment
	File created using the following command:
		vcd file ZeroFill.msim.vcd -direction
$end
$date
	Tue Apr 28 20:54:19 2020
$end
$version
	ModelSim Version 10.5b
$end
$timescale
	1ps
$end

$scope module ZeroFill_vlg_vec_tst $end
$var reg 3 ! In [2:0] $end
$var wire 1 " Out [7] $end
$var wire 1 # Out [6] $end
$var wire 1 $ Out [5] $end
$var wire 1 % Out [4] $end
$var wire 1 & Out [3] $end
$var wire 1 ' Out [2] $end
$var wire 1 ( Out [1] $end
$var wire 1 ) Out [0] $end

$scope module i1 $end
$var wire 1 * gnd $end
$var wire 1 + vcc $end
$var wire 1 , unknown $end
$var tri1 1 - devclrn $end
$var tri1 1 . devpor $end
$var tri1 1 / devoe $end
$var wire 1 0 ~QUARTUS_CREATED_GND~I_combout $end
$var wire 1 1 In[2]~input_o $end
$var wire 1 2 In[1]~input_o $end
$var wire 1 3 In[0]~input_o $end
$upscope $end
$upscope $end
$enddefinitions $end
#0
$dumpvars
b0 !
0)
0(
0'
0&
0%
0$
0#
0"
0*
1+
x,
1-
1.
1/
00
01
02
03
$end
#100000
b1 !
13
1)
#200000
b11 !
b10 !
03
12
1(
0)
#300000
b11 !
13
1)
#400000
b111 !
b101 !
b100 !
03
02
11
1'
0(
0)
#500000
b101 !
13
1)
#600000
b111 !
b110 !
03
12
1(
0)
#700000
b111 !
13
1)
