Mux4to1/simulation/qsim/Mux4to1.msim.vcd
$comment
	File created using the following command:
		vcd file Mux4to1.msim.vcd -direction
$end
$date
	Wed Apr 01 11:57:47 2020
$end
$version
	ModelSim Version 10.5b
$end
$timescale
	1ps
$end

$scope module Mux4to1_vlg_vec_tst $end
$var reg 1 ! In0 $end
$var reg 1 " In1 $end
$var reg 1 # In2 $end
$var reg 1 $ In3 $end
$var reg 1 % S0 $end
$var reg 1 & S1 $end
$var wire 1 ' Out $end

$scope module i1 $end
$var wire 1 ( gnd $end
$var wire 1 ) vcc $end
$var wire 1 * unknown $end
$var tri1 1 + devclrn $end
$var tri1 1 , devpor $end
$var tri1 1 - devoe $end
$var wire 1 . ~QUARTUS_CREATED_GND~I_combout $end
$var wire 1 / In3~input_o $end
$var wire 1 0 In2~input_o $end
$var wire 1 1 S0~input_o $end
$var wire 1 2 S1~input_o $end
$var wire 1 3 In0~input_o $end
$var wire 1 4 In1~input_o $end
$var wire 1 5 inst~0_combout $end
$upscope $end
$upscope $end
$enddefinitions $end
#0
$dumpvars
1!
0"
0#
0$
0%
0&
1'
0(
1)
x*
1+
1,
1-
0.
0/
00
01
02
13
04
15
$end
#100000
1%
11
05
0'
#200000
1&
0%
12
01
#300000
1%
11
#400000
1"
0!
0&
0%
14
03
02
01
#500000
1%
11
15
1'
#600000
1&
0%
12
01
05
0'
#700000
1%
11
#800000
1#
0"
0&
0%
10
04
02
01
#900000
1%
11
#1000000
1&
0%
12
01
15
1'
#1100000
1%
11
05
0'
#1200000
1$
0#
0&
0%
1/
00
02
01
#1300000
1%
11
#1400000
1&
0%
12
01
#1500000
1%
11
15
1'
