ArithStage/simulation/qsim/ArithStage.msim.vcd
$comment
	File created using the following command:
		vcd file ArithStage.msim.vcd -direction
$end
$date
	Wed Apr 01 14:38:49 2020
$end
$version
	ModelSim Version 10.5b
$end
$timescale
	1ps
$end

$scope module ArithStage_vlg_vec_tst $end
$var reg 8 ! A [7:0] $end
$var reg 8 " B [7:0] $end
$var reg 1 # Cin $end
$var reg 1 $ S0 $end
$var reg 1 % S1 $end
$var wire 1 & Cout $end
$var wire 1 ' G [7] $end
$var wire 1 ( G [6] $end
$var wire 1 ) G [5] $end
$var wire 1 * G [4] $end
$var wire 1 + G [3] $end
$var wire 1 , G [2] $end
$var wire 1 - G [1] $end
$var wire 1 . G [0] $end
$var wire 1 / V $end

$scope module i1 $end
$var wire 1 0 gnd $end
$var wire 1 1 vcc $end
$var wire 1 2 unknown $end
$var tri1 1 3 devclrn $end
$var tri1 1 4 devpor $end
$var tri1 1 5 devoe $end
$var wire 1 6 ~QUARTUS_CREATED_GND~I_combout $end
$var wire 1 7 S1~input_o $end
$var wire 1 8 B[6]~input_o $end
$var wire 1 9 S0~input_o $end
$var wire 1 : inst26~0_combout $end
$var wire 1 ; A[6]~input_o $end
$var wire 1 < A[3]~input_o $end
$var wire 1 = B[3]~input_o $end
$var wire 1 > inst16|inst~combout $end
$var wire 1 ? B[1]~input_o $end
$var wire 1 @ inst6~0_combout $end
$var wire 1 A B[2]~input_o $end
$var wire 1 B inst10~0_combout $end
$var wire 1 C A[1]~input_o $end
$var wire 1 D B[0]~input_o $end
$var wire 1 E Cin~input_o $end
$var wire 1 F A[0]~input_o $end
$var wire 1 G inst4|inst5~combout $end
$var wire 1 H A[2]~input_o $end
$var wire 1 I inst16|inst3~combout $end
$var wire 1 J inst16|inst4~combout $end
$var wire 1 K B[4]~input_o $end
$var wire 1 L inst18~0_combout $end
$var wire 1 M A[5]~input_o $end
$var wire 1 N B[5]~input_o $end
$var wire 1 O inst22~0_combout $end
$var wire 1 P A[4]~input_o $end
$var wire 1 Q inst24|inst5~combout $end
$var wire 1 R A[7]~input_o $end
$var wire 1 S B[7]~input_o $end
$var wire 1 T inst30~0_combout $end
$var wire 1 U inst33~combout $end
$var wire 1 V inst32|inst5~combout $end
$var wire 1 W inst32|inst2~combout $end
$var wire 1 X inst28|inst2~combout $end
$var wire 1 Y inst24|inst2~combout $end
$var wire 1 Z inst20|inst2~combout $end
$var wire 1 [ inst16|inst2~combout $end
$var wire 1 \ inst12|inst2~combout $end
$var wire 1 ] inst8|inst2~combout $end
$var wire 1 ^ inst4|inst2~combout $end
$upscope $end
$upscope $end
$enddefinitions $end
#0
$dumpvars
b1000 !
b11 "
0#
0$
0%
0&
0.
0-
0,
1+
0*
0)
0(
0'
0/
00
11
x2
13
14
15
06
07
08
09
0:
0;
1<
0=
1>
1?
0@
0A
0B
0C
1D
0E
0F
0G
0H
0I
0J
0K
0L
0M
0N
0O
0P
1Q
0R
0S
0T
0U
0V
0W
0X
0Y
0Z
1[
0\
0]
0^
$end
#100000
1#
1E
1^
1.
#200000
1$
0#
19
0E
1@
1]
1-
#300000
1#
1E
1G
0^
0.
0]
1\
1,
0-
#400000
1%
0$
0#
17
09
0E
0G
1T
1O
1L
1J
1B
0@
0>
1:
0Q
1X
1W
0[
0+
1'
1(
0X
0W
1V
1&
0'
0(
#500000
1#
1E
1^
1.
#600000
1$
0#
19
0E
1@
1]
1-
#700000
1#
1E
1G
0^
0.
0]
0\
1[
1+
0,
0-
#800000
b1001000 !
b1101000 !
b1111000 !
b1111100 !
b1111110 !
b1111111 !
b10000011 "
b10000001 "
b10000000 "
0%
0#
0D
0?
1S
1F
1C
1H
1P
1M
1;
07
0E
0G
0O
0L
0J
0B
0@
1>
0:
1^
1X
1Y
1Z
1\
1]
1-
1,
1*
1)
1(
1.
1Q
0X
0(
1X
1W
0V
0&
1'
1(
#900000
b10000001 "
1D
1G
0^
0.
1I
0]
0\
0[
0+
0,
0-
0Q
0Z
0Y
0)
0*
0X
0W
1V
1&
0'
0(
#1000000
b1 "
b0 "
0D
0S
0T
0G
1^
1.
0I
1]
1\
1[
1W
0V
1U
1/
0&
1'
1+
1,
1-
1Q
1Z
1Y
1)
1*
1X
0W
0U
0/
0'
1(
#1100000
b1 "
1D
1G
0^
0.
1I
0]
0\
0[
0+
0,
0-
0Q
0Z
0Y
0)
0*
0X
1W
1U
1/
1'
0(
