BranchControl/simulation/qsim/BranchControl.msim.vcd
$comment
	File created using the following command:
		vcd file BranchControl.msim.vcd -direction
$end
$date
	Tue Apr 28 22:48:29 2020
$end
$version
	ModelSim Version 10.5b
$end
$timescale
	1ps
$end

$scope module BranchControl_vlg_vec_tst $end
$var reg 1 ! BC $end
$var reg 1 " JB $end
$var reg 1 # N $end
$var reg 1 $ PL $end
$var reg 1 % Z $end
$var wire 1 & K [1] $end
$var wire 1 ' K [0] $end

$scope module i1 $end
$var wire 1 ( gnd $end
$var wire 1 ) vcc $end
$var wire 1 * unknown $end
$var tri1 1 + devclrn $end
$var tri1 1 , devpor $end
$var tri1 1 - devoe $end
$var wire 1 . ~QUARTUS_CREATED_GND~I_combout $end
$var wire 1 / JB~input_o $end
$var wire 1 0 PL~input_o $end
$var wire 1 1 K~0_combout $end
$var wire 1 2 N~input_o $end
$var wire 1 3 BC~input_o $end
$var wire 1 4 Z~input_o $end
$var wire 1 5 K~1_combout $end
$upscope $end
$upscope $end
$enddefinitions $end
#0
$dumpvars
0!
0"
0#
0$
0%
0'
0&
0(
1)
x*
1+
1,
1-
0.
0/
00
01
02
03
04
05
$end
#100000
1#
12
#200000
1%
0#
14
02
#300000
1#
12
#400000
1!
0%
0#
13
04
02
#500000
1#
12
#600000
1%
0#
14
02
#700000
1#
12
#800000
1"
0!
0%
0#
1/
03
04
02
#900000
1#
12
#1000000
1%
0#
14
02
#1100000
1#
12
#1200000
1!
0%
0#
13
04
02
#1300000
1#
12
#1400000
1%
0#
14
02
#1500000
1#
12
#1600000
1$
0"
0!
0%
0#
10
0/
03
04
02
#1700000
1#
12
#1800000
1%
0#
14
02
15
1&
#1900000
1#
12
#2000000
1!
0%
0#
13
04
02
05
0&
#2100000
1#
12
15
1&
#2200000
1%
0#
14
02
05
0&
#2300000
1#
12
15
1&
#2400000
1"
0!
0%
0#
1/
03
04
02
05
11
1'
0&
#2500000
1#
12
#2600000
1%
0#
14
02
#2700000
1#
12
#2800000
1!
0%
0#
13
04
02
#2900000
1#
12
#3000000
1%
0#
14
02
#3100000
1#
12
